ID	Gender	Race	Class	Sign	First	Ultra
10014	male	Dark Elf	Beastfighter	Candle	0	1
10041	female	Drakeling	Monk	Candle	0	0
10054	female	Dark Elf	Barbarian	Candle	1	1
10065	male	Dark Elf	Barbarian	Candle	0	1
10066	male	Orc	Paladin	Book	0	0
10101	male	Gray Elf	Ranger	Wolf	1	1
10103	female	Gray Elf	Wizard	Salamander	0	1
10104	female	Gnome	Elementalist	Cup	0	1
10129	male	Drakeling	Assassin	Dragon	0	0
10142	male	Drakeling	Mindcrafter	Candle	0	0
10154	male	Gnome	Fighter	Candle	0	0
10195	male	Gray Elf	Merchant	Candle	1	1
1020	male	Gray Elf	Wizard	Cup	1	1
10212	female	Hurthling	Paladin	Cup	1	1
10227	male	Human	Fighter	Wolf	0	1
10233	male	High Elf	Archer	Falcon	1	1
10246	female	Gray Elf	Wizard	Candle	0	1
10261	male	Gray Elf	Beastfighter	Candle	0	1
10268	male	Orc	Healer	Candle	0	0
10301	male	Gnome	Bard	Cup	0	1
10305	female	Troll	Healer	Candle	0	1
1031	male	Dark Elf	Wizard	Candle	0	1
10322	male	Human	Fighter	Candle	0	1
10338	female	Orc	Weaponsmith	Candle	0	1
10363	female	Gray Elf	Archer	Candle	1	0
10369	male	Gnome	Bard	Candle	0	0
10378	male	Human	Necromancer	Salamander	0	1
10400	male	Orc	Merchant	Cup	0	0
10411	female	Drakeling	Weaponsmith	Falcon	0	1
10421	male	Drakeling	Assassin	Falcon	0	0
10422	female	Dark Elf	Wizard	Unicorn	0	0
10440	male	Dark Elf	Fighter	Falcon	0	0
10441	female	Dark Elf	Mindcrafter	Candle	0	0
10446	male	High Elf	Farmer	Falcon	0	0
1045	female	Hurthling	Archer	Raven	0	0
10450	male	Dwarf	Monk	Dragon	0	0
10458	male	Human	Barbarian	Falcon	0	0
10466	female	Gnome	Ranger	Wolf	0	0
10489	male	Hurthling	Beastfighter	Wolf	0	0
1049	male	Human	Necromancer	Cup	1	1
10495	male	Gray Elf	Priest	Falcon	0	0
10511	female	Human	Wizard	Candle	1	0
10517	male	Drakeling	Mindcrafter	Candle	0	0
10524	male	Orc	Barbarian	Candle	1	1
10527	male	Drakeling	Healer	Cup	1	0
1053	male	Dark Elf	Barbarian	Tree	1	1
10543	female	Gnome	Assassin	Cup	0	1
10546	female	Dwarf	Farmer	Raven	0	1
10564	female	Dark Elf	Archer	Candle	0	1
10568	male	Gnome	Assassin	Candle	0	0
10576	male	Dark Elf	Barbarian	Candle	0	1
10589	male	Dark Elf	Beastfighter	Dragon	0	1
10605	male	Orc	Merchant	Candle	0	0
10617	female	High Elf	Merchant	Book	0	1
10621	male	Dwarf	Fighter	Dragon	0	0
10631	male	Gnome	Wizard	Dragon	1	1
10635	male	Drakeling	Beastfighter	Candle	0	1
10656	male	Dwarf	Healer	Wolf	0	0
10657	female	Human	Archer	Dragon	0	0
10661	female	Dark Elf	Thief	Raven	0	0
10663	female	Hurthling	Mindcrafter	Candle	0	1
10670	male	Drakeling	Paladin	Book	0	0
10680	female	Drakeling	Wizard	Salamander	0	0
10685	male	Dark Elf	Mindcrafter	Candle	0	0
10692	male	Hurthling	Elementalist	Dragon	0	0
107	male	Gnome	Thief	Candle	0	0
10709	male	Dwarf	Druid	Candle	0	1
10714	male	Drakeling	Wizard	Candle	0	1
10753	male	Drakeling	Barbarian	Cup	0	0
10778	male	Troll	Barbarian	Dragon	0	1
1078	male	Drakeling	Healer	Book	0	1
1088	female	High Elf	Barbarian	Sword	1	1
10895	female	High Elf	Archer	Raven	1	0
10908	male	Dwarf	Barbarian	Candle	0	0
10942	male	Dwarf	Fighter	Candle	0	0
10958	male	Gray Elf	Monk	Wand	0	1
10965	male	Orc	Beastfighter	Unicorn	0	0
10976	male	Human	Wizard	Tree	0	1
1099	male	Gray Elf	Mindcrafter	Falcon	0	1
10998	male	Gray Elf	Wizard	Wand	1	0
10999	female	Gnome	Monk	Raven	0	0
110	female	Human	Elementalist	Salamander	0	0
11015	male	Gnome	Monk	Raven	0	1
11033	male	Dwarf	Barbarian	Sword	1	0
11037	female	Hurthling	Beastfighter	Raven	0	0
11039	male	Drakeling	Archer	Raven	0	1
11056	male	Gray Elf	Necromancer	Cup	0	1
11057	male	Gnome	Beastfighter	Candle	1	0
11059	male	Orc	Mindcrafter	Cup	0	0
1107	female	High Elf	Paladin	Candle	0	1
11080	male	Dark Elf	Beastfighter	Sword	0	1
11130	female	Dark Elf	Archer	Candle	0	1
11135	female	Gray Elf	Wizard	Tree	0	0
11136	female	Gray Elf	Priest	Sword	0	0
11140	female	Dark Elf	Archer	Raven	0	0
11143	female	Gnome	Healer	Wolf	1	1
11159	female	Gray Elf	Wizard	Wand	1	0
11165	female	High Elf	Wizard	Sword	1	1
11166	male	Dwarf	Paladin	Raven	1	0
11173	male	Drakeling	Barbarian	Candle	0	1
11179	female	Dwarf	Priest	Book	1	0
11187	female	Gray Elf	Wizard	Raven	0	0
11193	male	Orc	Beastfighter	Cup	0	0
11203	male	High Elf	Archer	Dragon	0	0
11208	male	Gnome	Beastfighter	Candle	0	0
11209	male	High Elf	Priest	Book	0	1
11215	female	High Elf	Priest	Cup	0	0
11223	female	Gnome	Bard	Candle	0	0
1123	male	Drakeling	Beastfighter	Candle	0	1
11234	male	Drakeling	Monk	Raven	0	1
11235	female	Gray Elf	Wizard	Wand	1	1
11244	male	Dwarf	Priest	Candle	0	1
11247	female	Gray Elf	Wizard	Cup	1	1
11264	male	Gnome	Monk	Cup	0	0
11284	female	Gray Elf	Healer	Raven	1	0
11310	male	Drakeling	Necromancer	Raven	1	0
11340	male	Human	Priest	Salamander	0	0
11351	female	Hurthling	Bard	Wand	0	0
11354	male	Gray Elf	Priest	Wand	0	1
11541	female	High Elf	Archer	Candle	0	1
11572	female	Drakeling	Paladin	Candle	0	0
11576	male	Drakeling	Beastfighter	Candle	0	0
1158	male	Gray Elf	Wizard	Cup	0	1
1159	male	Gray Elf	Wizard	Falcon	1	0
11607	male	Gray Elf	Wizard	Cup	0	1
11617	male	Dark Elf	Priest	Candle	0	0
11620	female	Hurthling	Weaponsmith	Cup	1	1
11633	male	High Elf	Archer	Raven	0	0
11644	male	Dark Elf	Wizard	Dragon	0	0
11653	male	Drakeling	Mindcrafter	Raven	0	0
1166	male	Hurthling	Farmer	Wolf	0	0
11678	male	Gnome	Assassin	Cup	1	1
11704	male	Hurthling	Thief	Raven	1	1
11705	male	Gray Elf	Weaponsmith	Falcon	0	1
11708	female	Drakeling	Monk	Candle	0	1
11718	female	Dwarf	Archer	Book	0	0
11723	male	Dark Elf	Barbarian	Dragon	0	0
11724	female	High Elf	Barbarian	Sword	0	0
11732	female	Dark Elf	Necromancer	Candle	1	1
11734	male	Gnome	Bard	Raven	1	0
11776	male	Drakeling	Barbarian	Raven	1	1
11809	female	Gray Elf	Healer	Candle	1	1
11810	female	Human	Necromancer	Candle	1	0
11812	male	Human	Healer	Tree	0	1
11814	female	Gray Elf	Barbarian	Candle	1	0
11816	male	Human	Barbarian	Raven	1	0
11822	male	Human	Druid	Candle	1	1
11830	female	Gnome	Fighter	Tree	0	1
11855	female	Gray Elf	Wizard	Wand	0	0
11858	male	Hurthling	Archer	Raven	0	1
11860	female	Dwarf	Fighter	Raven	0	1
11861	male	Troll	Wizard	Falcon	0	0
11866	male	Dwarf	Paladin	Cup	0	1
11871	male	Drakeling	Barbarian	Sword	0	1
11885	male	Hurthling	Barbarian	Candle	0	1
11886	male	Drakeling	Paladin	Raven	1	0
11903	male	Troll	Bard	Cup	0	0
11909	female	Dark Elf	Druid	Book	0	0
11955	male	Dwarf	Monk	Candle	0	1
11959	female	Gray Elf	Druid	Falcon	0	0
11961	male	Hurthling	Thief	Sword	0	1
11984	male	Drakeling	Monk	Candle	0	0
11997	female	Orc	Bard	Cup	0	1
11999	male	Drakeling	Monk	Candle	0	0
12010	male	Troll	Necromancer	Unicorn	1	1
12017	male	Dark Elf	Paladin	Candle	0	0
12024	male	Dark Elf	Archer	Unicorn	1	0
12044	male	Gray Elf	Assassin	Falcon	0	1
12053	male	Dark Elf	Beastfighter	Dragon	0	1
12058	male	Orc	Barbarian	Sword	0	0
12071	male	Dwarf	Paladin	Cup	0	0
12075	male	Human	Paladin	Cup	0	1
12094	female	Human	Thief	Dragon	0	0
12095	male	Gray Elf	Wizard	Wand	1	0
12149	male	High Elf	Archer	Raven	1	0
12162	female	Human	Chaos	Book	0	0
12170	female	Human	Chaos	Candle	0	1
12171	male	Human	Chaos	Candle	0	0
12174	male	Hurthling	Chaos	Candle	0	1
12176	male	Drakeling	Monk	Candle	1	1
12183	male	Drakeling	Chaos	Candle	0	1
12188	male	Mist Elf	Wizard	Wand	0	1
12193	male	Drakeling	Priest	Tree	1	1
12204	male	Ratling	Wizard	Cup	0	0
12205	female	Mist Elf	Farmer	Tree	1	0
12218	female	Ratling	Weaponsmith	Raven	0	0
12242	male	Ratling	Duelist	Candle	1	0
1225	male	Drakeling	Wizard	Salamander	0	1
12261	female	Ratling	Duelist	Dragon	0	1
12262	male	Dwarf	Monk	Dragon	0	1
12268	male	Ratling	Duelist	Tree	0	0
12269	male	Drakeling	Paladin	Book	1	0
12271	male	Mist Elf	Duelist	Candle	1	1
12280	male	Orc	Chaos	Salamander	1	0
12285	male	Troll	Barbarian	Wand	0	0
12289	male	Dark Elf	Necromancer	Falcon	1	1
12292	female	Drakeling	Archer	Candle	0	1
12299	male	Gray Elf	Wizard	Wand	0	0
12300	male	Gray Elf	Duelist	Wand	0	1
12310	female	Dark Elf	Beastfighter	Dragon	0	1
12312	male	Hurthling	Archer	Raven	0	1
12319	female	Drakeling	Bard	Candle	0	1
12324	male	Human	Healer	Raven	0	1
12351	female	Mist Elf	Thief	Candle	0	0
12359	male	Ratling	Assassin	Raven	0	1
12360	male	Troll	Barbarian	Cup	1	1
12375	male	Human	Elementalist	Salamander	0	1
12381	male	Mist Elf	Wizard	Wand	0	0
12383	male	Ratling	Merchant	Wolf	1	1
12408	male	Human	Fighter	Candle	0	1
1241	male	Hurthling	Bard	Candle	0	0
12412	male	Drakeling	Healer	Book	0	1
12416	male	Dwarf	Duelist	Candle	0	1
12419	male	Human	Elementalist	Salamander	0	1
12423	male	Dwarf	Monk	Raven	0	1
12434	male	Dwarf	Duelist	Dragon	0	1
12443	male	Orc	Priest	Raven	0	0
12451	female	Gray Elf	Wizard	Candle	0	0
1248	male	Gray Elf	Archer	Unicorn	1	1
12480	male	Dark Elf	Bard	Dragon	0	0
12481	male	Human	Bard	Tree	1	1
12489	male	Human	Archer	Candle	0	0
12501	male	Drakeling	Paladin	Book	1	1
12503	male	Hurthling	Ranger	Cup	0	0
12515	male	Drakeling	Monk	Cup	1	0
12530	female	Dark Elf	Beastfighter	Candle	0	1
12539	male	Dwarf	Monk	Tree	0	1
12565	male	Dark Elf	Barbarian	Raven	0	1
12569	male	Drakeling	Chaos	Candle	0	1
12571	female	Dark Elf	Paladin	Tree	0	1
12575	male	Dark Elf	Mindcrafter	Candle	0	1
1258	male	Gnome	Monk	Raven	0	1
12585	male	Dark Elf	Barbarian	Wand	1	1
12586	male	High Elf	Priest	Candle	1	0
12617	male	Mist Elf	Weaponsmith	Candle	0	1
12618	male	Hurthling	Fighter	Raven	0	0
12626	male	Hurthling	Beastfighter	Wolf	0	1
12639	male	Ratling	Duelist	Candle	0	0
12640	male	Hurthling	Assassin	Raven	1	1
12645	male	Hurthling	Duelist	Raven	0	1
12650	male	Dark Elf	Wizard	Book	0	1
12657	male	Dwarf	Duelist	Dragon	0	0
12663	female	Hurthling	Farmer	Candle	1	0
12710	male	Human	Paladin	Dragon	1	0
12718	male	Dwarf	Monk	Candle	1	1
12732	male	Dark Elf	Ranger	Cup	1	0
12744	male	Dwarf	Healer	Sword	1	0
12758	male	Ratling	Beastfighter	Cup	0	1
12767	male	Human	Archer	Raven	0	1
12768	female	Human	Merchant	Tree	0	0
12777	female	Dark Elf	Merchant	Falcon	0	1
12783	female	Human	Duelist	Candle	1	1
12796	female	Dwarf	Druid	Wand	0	1
12803	male	Dwarf	Healer	Raven	0	0
1282	male	Orc	Priest	Cup	0	0
12843	male	High Elf	Mindcrafter	Candle	1	1
1286	male	Dark Elf	Beastfighter	Candle	0	0
12864	male	Troll	Chaos	Tree	0	1
12874	male	High Elf	Duelist	Raven	1	0
12883	female	Gray Elf	Wizard	Cup	1	1
12896	male	Gray Elf	Archer	Sword	0	1
12901	female	Gray Elf	Ranger	Dragon	1	1
12903	male	Gnome	Thief	Candle	1	1
12907	male	Drakeling	Monk	Candle	1	0
12910	male	Dwarf	Paladin	Book	1	1
12912	male	High Elf	Wizard	Unicorn	1	1
1292	female	Dwarf	Fighter	Candle	0	0
12923	male	High Elf	Priest	Book	1	1
12926	male	Dwarf	Paladin	Candle	0	1
12958	male	Dark Elf	Paladin	Tree	1	0
12982	male	Dwarf	Healer	Raven	1	1
12985	male	Gnome	Monk	Cup	1	1
12996	female	Dark Elf	Priest	Raven	0	1
1301	female	Gray Elf	Healer	Candle	0	1
13038	male	Human	Chaos	Raven	0	0
13044	male	Troll	Chaos	Candle	0	0
13048	female	Gnome	Necromancer	Dragon	1	1
13066	female	Gray Elf	Wizard	Candle	0	1
1308	male	Gray Elf	Archer	Candle	1	1
13080	female	Mist Elf	Bard	Wand	1	1
13086	male	Drakeling	Wizard	Cup	0	0
13106	male	Dwarf	Barbarian	Tree	0	1
13111	female	High Elf	Paladin	Salamander	1	0
13118	female	Gray Elf	Assassin	Candle	1	1
13128	female	Dark Elf	Archer	Raven	1	0
13139	male	Orc	Beastfighter	Book	0	1
13147	female	Drakeling	Monk	Cup	0	0
13158	male	Dwarf	Barbarian	Raven	0	0
13159	female	High Elf	Priest	Candle	1	1
13161	male	Gnome	Bard	Tree	0	0
13164	female	Gnome	Beastfighter	Cup	1	1
13173	female	Dwarf	Fighter	Candle	0	0
13193	male	Drakeling	Monk	Tree	1	0
13195	male	Ratling	Priest	Tree	1	1
13207	female	Gray Elf	Mindcrafter	Raven	0	1
13210	female	Dark Elf	Mindcrafter	Salamander	1	1
13212	male	Drakeling	Monk	Raven	1	0
13237	male	High Elf	Archer	Sword	0	0
13240	male	Drakeling	Paladin	Candle	0	0
13244	male	Dwarf	Monk	Tree	0	0
13246	female	Gray Elf	Ranger	Raven	0	0
13258	female	High Elf	Archer	Raven	1	0
13261	male	Troll	Barbarian	Candle	0	0
13272	female	Mist Elf	Healer	Falcon	0	0
13277	male	Gnome	Bard	Falcon	0	1
13283	female	Ratling	Bard	Falcon	0	1
13285	male	Orc	Thief	Sword	0	0
13287	male	Mist Elf	Wizard	Salamander	0	1
13299	female	High Elf	Assassin	Unicorn	0	0
13301	male	Gnome	Beastfighter	Candle	1	0
1332	male	Troll	Healer	Candle	1	0
13328	male	Human	Merchant	Raven	0	1
13345	female	Dark Elf	Beastfighter	Raven	0	0
13368	male	Troll	Bard	Cup	1	1
13381	male	Dwarf	Paladin	Dragon	0	0
13384	male	Dwarf	Monk	Cup	0	0
13397	male	Drakeling	Assassin	Book	0	0
13406	male	Gnome	Weaponsmith	Cup	1	0
13423	female	Human	Necromancer	Book	0	1
1346	male	Hurthling	Thief	Candle	0	1
13463	male	Gnome	Duelist	Candle	0	0
13466	female	Gray Elf	Mindcrafter	Raven	0	0
13478	male	Dark Elf	Barbarian	Raven	0	0
13493	male	Drakeling	Paladin	Raven	1	1
13499	female	Dark Elf	Priest	Dragon	1	0
13505	female	Human	Assassin	Candle	0	0
13536	male	Orc	Barbarian	Raven	1	1
13549	male	Orc	Barbarian	Candle	0	0
13567	male	Dark Elf	Ranger	Raven	0	1
13597	male	High Elf	Archer	Candle	0	1
13619	male	Orc	Barbarian	Candle	1	1
13620	male	Dark Elf	Assassin	Raven	0	1
13634	male	Human	Chaos	Candle	0	1
13639	male	Drakeling	Monk	Sword	0	1
13675	male	Dark Elf	Archer	Raven	0	0
13687	male	Dark Elf	Beastfighter	Raven	1	0
13699	male	High Elf	Healer	Tree	0	0
13718	male	Dark Elf	Archer	Falcon	0	0
13736	male	Orc	Paladin	Dragon	0	0
13746	female	Dark Elf	Archer	Raven	1	0
13760	male	Ratling	Healer	Dragon	1	1
13761	female	Dwarf	Assassin	Raven	0	1
13774	female	Dwarf	Healer	Unicorn	1	1
13785	female	Drakeling	Wizard	Book	0	0
13817	female	Drakeling	Elementalist	Cup	0	1
13823	female	Ratling	Mindcrafter	Salamander	1	1
1388	male	Hurthling	Farmer	Raven	0	0
1394	female	Dwarf	Wizard	Raven	1	1
1413	female	Dark Elf	Archer	Candle	1	0
142	male	Dwarf	Healer	Sword	0	0
1424	female	Dwarf	Druid	Candle	0	0
1445	female	Dark Elf	Archer	Raven	1	1
1456	female	Gray Elf	Ranger	Raven	0	1
1457	female	Drakeling	Paladin	Candle	0	0
1469	male	Dark Elf	Paladin	Sword	0	1
1513	female	Gray Elf	Wizard	Candle	0	1
1516	male	Dwarf	Paladin	Candle	1	0
1542	female	Gray Elf	Wizard	Raven	0	0
1544	male	Drakeling	Wizard	Raven	1	1
155	male	Dwarf	Mindcrafter	Tree	0	0
1550	female	High Elf	Barbarian	Dragon	0	1
1565	male	Gnome	Elementalist	Wolf	1	0
1570	female	Gnome	Monk	Raven	1	0
1574	female	Dark Elf	Beastfighter	Candle	0	1
1598	male	Dark Elf	Wizard	Candle	1	1
1606	female	Drakeling	Thief	Sword	0	1
1615	male	Dark Elf	Merchant	Candle	0	1
1630	male	Hurthling	Elementalist	Salamander	0	1
1642	male	Gnome	Wizard	Falcon	0	0
1664	male	Human	Fighter	Dragon	1	1
1666	male	Drakeling	Monk	Raven	1	0
1685	male	Gray Elf	Wizard	Salamander	1	1
1688	male	Drakeling	Wizard	Raven	1	1
1739	female	Troll	Barbarian	Wolf	0	1
1755	male	Dark Elf	Druid	Dragon	0	1
1759	male	Orc	Beastfighter	Sword	0	0
1767	male	Gray Elf	Wizard	Cup	1	0
239	male	Gnome	Elementalist	Salamander	0	0
241	female	Gray Elf	Bard	Cup	0	1
262	male	Human	Bard	Candle	1	0
270	male	Orc	Barbarian	Dragon	1	0
276	female	Human	Wizard	Salamander	0	0
283	male	Drakeling	Paladin	Unicorn	0	0
291	male	Human	Wizard	Cup	0	1
302	female	Hurthling	Beastfighter	Cup	0	0
304	male	Drakeling	Farmer	Cup	0	1
321	female	Gray Elf	Wizard	Cup	0	1
343	male	Dark Elf	Wizard	Book	0	0
352	female	Human	Monk	Candle	0	1
370	female	Human	Wizard	Sword	0	0
413	female	Gray Elf	Ranger	Book	0	1
418	male	Gnome	Monk	Falcon	0	0
430	male	Gnome	Farmer	Wolf	0	1
438	male	Gray Elf	Wizard	Wand	0	0
443	female	Hurthling	Beastfighter	Book	0	0
4754	male	Drakeling	Wizard	Salamander	0	1
479	female	Human	Assassin	Candle	0	0
495	female	Dark Elf	Archer	Raven	0	1
498	male	Dark Elf	Druid	Candle	0	0
509	male	Dark Elf	Merchant	Raven	0	1
529	female	Gray Elf	Assassin	Falcon	1	0
553	female	Human	Ranger	Falcon	0	0
605	male	High Elf	Wizard	Candle	1	0
644	female	High Elf	Beastfighter	Unicorn	0	0
654	male	Gray Elf	Wizard	Cup	1	0
664	male	Dwarf	Bard	Raven	0	0
670	male	Orc	Barbarian	Sword	1	1
694	male	Dwarf	Bard	Raven	0	0
697	male	Gray Elf	Wizard	Wand	1	1
824	female	Gnome	Assassin	Dragon	1	0
827	male	Human	Beastfighter	Candle	0	1
857	female	Gnome	Barbarian	Dragon	1	1
908	male	Gnome	Elementalist	Salamander	1	1
962	male	Dark Elf	Priest	Salamander	0	0
9631	male	Dark Elf	Paladin	Raven	0	1
9646	female	Dark Elf	Archer	Candle	0	0
9661	female	Hurthling	Beastfighter	Cup	0	1
9709	male	Gnome	Mindcrafter	Candle	0	1
9712	male	Orc	Paladin	Falcon	1	1
9750	male	Drakeling	Monk	Candle	0	0
9785	female	High Elf	Elementalist	Salamander	1	0
98	male	Human	Barbarian	Sword	1	1
980	male	Drakeling	Beastfighter	Candle	0	1
9801	female	Gray Elf	Necromancer	Raven	1	0
989	male	Gnome	Mindcrafter	Wolf	0	1
9891	female	Gray Elf	Farmer	Candle	0	1
9915	female	Hurthling	Weaponsmith	Raven	0	0
9924	male	Drakeling	Monk	Raven	0	1
9926	male	Gray Elf	Necromancer	Cup	0	1
9933	female	Hurthling	Assassin	Salamander	0	1
9940	male	Troll	Barbarian	Cup	0	0
9973	female	Dark Elf	Mindcrafter	Candle	0	0
